{
  "project_info": {
    "project_number": "761922008105",
    "firebase_url": "https://itro-b9c1a.firebaseio.com",
    "project_id": "itro-b9c1a",
    "storage_bucket": "itro-b9c1a.appspot.com"
  },
  "client": [
    {
      "client_info": {
        "mobilesdk_app_id": "1:761922008105:android:b778cc9bd64ad88b",
        "android_client_info": {
          "package_name": "com.blue.hoantran.itro_host"
        }
      },
      "oauth_client": [
        {
          "client_id": "761922008105-8f5akuk93lpsvgek0cl3empk8s2ekg41.apps.googleusercontent.com",
          "client_type": 1,
          "android_info": {
            "package_name": "com.blue.hoantran.itro_host",
            "certificate_hash": "87b3852bd98db1950d5d08f381ba7196da6d4431"
          }
        },
        {
          "client_id": "761922008105-1guoothjsih1q0p3nnjohvm6lcqer10c.apps.googleusercontent.com",
          "client_type": 3
        }
      ],
      "api_key": [
        {
          "current_key": "AIzaSyAjhcseK_mMbzikpM9n8lzgrkt2EWkyiMA"
        }
      ],
      "services": {
        "analytics_service": {
          "status": 1
        },
        "appinvite_service": {
          "status": 2,
          "other_platform_oauth_client": [
            {
              "client_id": "761922008105-1guoothjsih1q0p3nnjohvm6lcqer10c.apps.googleusercontent.com",
              "client_type": 3
            },
            {
              "client_id": "761922008105-smd5nhcedfg0abbtgjji729emavi0qd6.apps.googleusercontent.com",
              "client_type": 2,
              "ios_info": {
                "bundle_id": "com.itro.landlord"
              }
            }
          ]
        },
        "ads_service": {
          "status": 2
        }
      }
    },
    {
      "client_info": {
        "mobilesdk_app_id": "1:761922008105:android:41c10ccd4ff8fa14",
        "android_client_info": {
          "package_name": "itro.com.itro"
        }
      },
      "oauth_client": [
        {
          "client_id": "761922008105-f5k8oiopg2e77ampmn1c9328645o4d6t.apps.googleusercontent.com",
          "client_type": 1,
          "android_info": {
            "package_name": "itro.com.itro",
            "certificate_hash": "26654b73b86070c97513b44887ff9c9867cc5fa7"
          }
        },
        {
          "client_id": "761922008105-1guoothjsih1q0p3nnjohvm6lcqer10c.apps.googleusercontent.com",
          "client_type": 3
        }
      ],
      "api_key": [
        {
          "current_key": "AIzaSyAjhcseK_mMbzikpM9n8lzgrkt2EWkyiMA"
        }
      ],
      "services": {
        "analytics_service": {
          "status": 1
        },
        "appinvite_service": {
          "status": 2,
          "other_platform_oauth_client": [
            {
              "client_id": "761922008105-1guoothjsih1q0p3nnjohvm6lcqer10c.apps.googleusercontent.com",
              "client_type": 3
            },
            {
              "client_id": "761922008105-smd5nhcedfg0abbtgjji729emavi0qd6.apps.googleusercontent.com",
              "client_type": 2,
              "ios_info": {
                "bundle_id": "com.itro.landlord"
              }
            }
          ]
        },
        "ads_service": {
          "status": 2
        }
      }
    },
    {
      "client_info": {
        "mobilesdk_app_id": "1:761922008105:android:038b91bb04e9fe15",
        "android_client_info": {
          "package_name": "meboo.com.itrouser"
        }
      },
      "oauth_client": [
        {
          "client_id": "761922008105-1guoothjsih1q0p3nnjohvm6lcqer10c.apps.googleusercontent.com",
          "client_type": 3
        }
      ],
      "api_key": [
        {
          "current_key": "AIzaSyAjhcseK_mMbzikpM9n8lzgrkt2EWkyiMA"
        }
      ],
      "services": {
        "analytics_service": {
          "status": 1
        },
        "appinvite_service": {
          "status": 1,
          "other_platform_oauth_client": []
        },
        "ads_service": {
          "status": 2
        }
      }
    }
  ],
  "configuration_version": "1"
}